<?xml version="1.0" encoding="UTF-8"?>
<testsuite name="ValidationApiTest" tests="7" skipped="0" failures="1" errors="0" timestamp="2026-07-11T17:42:35" hostname="KUDANIL" time="14.004">
  <properties/>
  <testcase name="testFailedLogin" classname="ValidationApiTest" time="7.439">
    <failure message="java.lang.AssertionError: 1 expectation failed.&#10;JSON path data.email doesn't match.&#10;Expected: wrongemail@example.com&#10;  Actual: null&#10;" type="java.lang.AssertionError">java.lang.AssertionError: 1 expectation failed.
JSON path data.email doesn't match.
Expected: wrongemail@example.com
  Actual: null

	at org.codehaus.groovy.vmplugin.v8.IndyInterface.fromCache(IndyInterface.java:344)
	at io.restassured.internal.ResponseSpecificationImpl$HamcrestAssertionClosure.validate(ResponseSpecificationImpl.groovy:516)
	at org.codehaus.groovy.vmplugin.v8.IndyInterface.fromCache(IndyInterface.java:344)
	at io.restassured.internal.ResponseSpecificationImpl.validateResponseIfRequired(ResponseSpecificationImpl.groovy:714)
	at org.codehaus.groovy.vmplugin.v8.IndyInterface.fromCache(IndyInterface.java:344)
	at io.restassured.internal.ResponseSpecificationImpl.body(ResponseSpecificationImpl.groovy:274)
	at org.codehaus.groovy.vmplugin.v8.IndyInterface.fromCache(IndyInterface.java:344)
	at io.restassured.internal.ResponseSpecificationImpl.body(ResponseSpecificationImpl.groovy:121)
	at io.restassured.internal.ValidatableResponseOptionsImpl.body(ValidatableResponseOptionsImpl.java:244)
	at ValidationApiTest.testFailedLogin(ValidationApiTest.java:116)
	at java.base/jdk.internal.reflect.DirectMethodHandleAccessor.invoke(DirectMethodHandleAccessor.java:103)
	at java.base/java.lang.reflect.Method.invoke(Method.java:580)
	at org.testng.internal.invokers.MethodInvocationHelper.invokeMethod(MethodInvocationHelper.java:141)
	at org.testng.internal.invokers.TestInvoker.invokeMethod(TestInvoker.java:697)
	at org.testng.internal.invokers.TestInvoker.invokeTestMethod(TestInvoker.java:230)
	at org.testng.internal.invokers.MethodRunner.runInSequence(MethodRunner.java:63)
	at org.testng.internal.invokers.TestInvoker$MethodInvocationAgent.invoke(TestInvoker.java:1005)
	at org.testng.internal.invokers.TestInvoker.invokeTestMethods(TestInvoker.java:203)
	at org.testng.internal.invokers.TestMethodWorker.invokeTestMethods(TestMethodWorker.java:154)
	at org.testng.internal.invokers.TestMethodWorker.run(TestMethodWorker.java:134)
	at java.base/java.util.ArrayList.forEach(ArrayList.java:1596)
	at org.testng.TestRunner.privateRun(TestRunner.java:744)
	at org.testng.TestRunner.run(TestRunner.java:616)
	at org.testng.SuiteRunner.runTest(SuiteRunner.java:421)
	at org.testng.SuiteRunner$SuiteWorker.run(SuiteRunner.java:463)
	at org.testng.internal.thread.ThreadUtil.lambda$execute$0(ThreadUtil.java:64)
	at java.base/java.util.concurrent.FutureTask.run(FutureTask.java:317)
	at java.base/java.util.concurrent.ThreadPoolExecutor.runWorker(ThreadPoolExecutor.java:1144)
	at java.base/java.util.concurrent.ThreadPoolExecutor$Worker.run(ThreadPoolExecutor.java:642)
	at java.base/java.lang.Thread.run(Thread.java:1583)
</failure>
  </testcase>
  <testcase name="testRegister" classname="ValidationApiTest" time="2.158"/>
  <testcase name="testLogin" classname="ValidationApiTest" time="1.292"/>
  <testcase name="testGetListUsers" classname="ValidationApiTest" time="0.709"/>
  <testcase name="testLogout" classname="ValidationApiTest" time="0.466"/>
  <testcase name="testWrongLogin" classname="ValidationApiTest" time="1.316"/>
  <testcase name="testBlankLogin" classname="ValidationApiTest" time="0.483"/>
  <system-out><![CDATA[HTTP/1.1 401 Unauthorized
Cache-Control: public, max-age=0, must-revalidate
Content-Type: application/json
Date: Sat, 11 Jul 2026 17:42:41 GMT
Permissions-Policy: geolocation=(), microphone=(), camera=()
Referrer-Policy: strict-origin-when-cross-origin
Server: Vercel
Strict-Transport-Security: max-age=63072000
Vary: RSC, Next-Router-State-Tree, Next-Router-Prefetch
X-Content-Type-Options: nosniff
X-Frame-Options: DENY
X-Matched-Path: /api/auth/login
X-Ratelimit-Limit: 100
X-Ratelimit-Remaining: 98
X-Ratelimit-Reset: 2026-07-11T17:43:39.354Z
X-Vercel-Cache: MISS
X-Vercel-Id: sin1::iad1::tpb9n-1783791758652-593af78b05d9
X-Xss-Protection: 1; mode=block
Transfer-Encoding: chunked

{
    "success": false,
    "error": "Email atau password salah"
}
HTTP/1.1 201 Created
Cache-Control: public, max-age=0, must-revalidate
Content-Type: application/json
Date: Sat, 11 Jul 2026 17:42:42 GMT
Permissions-Policy: geolocation=(), microphone=(), camera=()
Referrer-Policy: strict-origin-when-cross-origin
Server: Vercel
Strict-Transport-Security: max-age=63072000
Vary: RSC, Next-Router-State-Tree, Next-Router-Prefetch
X-Content-Type-Options: nosniff
X-Frame-Options: DENY
X-Matched-Path: /api/auth/register
X-Ratelimit-Limit: 100
X-Ratelimit-Remaining: 98
X-Ratelimit-Reset: 2026-07-11T17:43:39.387Z
X-Vercel-Cache: MISS
X-Vercel-Id: sin1::iad1::q86nn-1783791758652-d1fff78f542a
X-Xss-Protection: 1; mode=block
Transfer-Encoding: chunked

{
    "success": true,
    "message": "Registrasi berhasil",
    "data": {
        "id": "cfc0caeb-a686-4119-9a1e-8337b3606367",
        "email": "bayuyudha1783791755000@gmail.com",
        "nama": "Bayu Yudha Pratama",
        "created_at": "2026-07-11T17:42:42.260317+00:00",
        "updated_at": "2026-07-11T17:42:42.260317+00:00"
    }
}
Email anda bayuyudha1783791755000@gmail.com berhasil diregistrasi!
Status Code: 200
Response: {"success":true,"message":"Login berhasil","data":{"user":{"id":"f0b5489c-8fbd-449a-b386-21f61f793201","email":"bayuyudha1783791754880@gmail.com","nama":"Bayu Yudha Pratama","created_at":"2026-07-11T17:42:44.577894+00:00","updated_at":"2026-07-11T17:42:44.577894+00:00"},"token":"eyJhbGciOiJIUzI1NiJ9.eyJ1c2VySWQiOiJmMGI1NDg5Yy04ZmJkLTQ0OWEtYjM4Ni0yMWY2MWY3OTMyMDEiLCJlbWFpbCI6ImJheXV5dWRoYTE3ODM3OTE3NTQ4ODBAZ21haWwuY29tIiwibmFtYSI6IkJheXUgWXVkaGEgUHJhdGFtYSIsImlhdCI6MTc4Mzc5MTc2NiwiZXhwIjoxNzg0Mzk2NTY2fQ.LzL_0OJqS2JS0VBV6aypgUcw1azgYdAIKS_1aNFBnXk"}}
Token: eyJhbGciOiJIUzI1NiJ9.eyJ1c2VySWQiOiJmMGI1NDg5Yy04ZmJkLTQ0OWEtYjM4Ni0yMWY2MWY3OTMyMDEiLCJlbWFpbCI6ImJheXV5dWRoYTE3ODM3OTE3NTQ4ODBAZ21haWwuY29tIiwibmFtYSI6IkJheXUgWXVkaGEgUHJhdGFtYSIsImlhdCI6MTc4Mzc5MTc2NiwiZXhwIjoxNzg0Mzk2NTY2fQ.LzL_0OJqS2JS0VBV6aypgUcw1azgYdAIKS_1aNFBnXk
HTTP/1.1 200 OK
Cache-Control: public, max-age=0, must-revalidate
Content-Encoding: gzip
Content-Type: application/json
Date: Sat, 11 Jul 2026 17:42:46 GMT
Permissions-Policy: geolocation=(), microphone=(), camera=()
Referrer-Policy: strict-origin-when-cross-origin
Server: Vercel
Strict-Transport-Security: max-age=63072000
Vary: RSC, Next-Router-State-Tree, Next-Router-Prefetch
X-Content-Type-Options: nosniff
X-Frame-Options: DENY
X-Matched-Path: /api/auth/me
X-Ratelimit-Limit: 100
X-Ratelimit-Remaining: 98
X-Ratelimit-Reset: 2026-07-11T17:43:46.358Z
X-Vercel-Cache: BYPASS
X-Vercel-Id: sin1::iad1::dr9mc-1783791766337-9c378ce09859
X-Xss-Protection: 1; mode=block
Transfer-Encoding: chunked

{
    "success": true,
    "data": {
        "id": "f0b5489c-8fbd-449a-b386-21f61f793201",
        "email": "bayuyudha1783791754880@gmail.com",
        "nama": "Bayu Yudha Pratama",
        "created_at": "2026-07-11T17:42:44.577894+00:00",
        "updated_at": "2026-07-11T17:42:44.577894+00:00"
    }
}
HTTP/1.1 201 Created
Cache-Control: public, max-age=0, must-revalidate
Content-Type: application/json
Date: Sat, 11 Jul 2026 17:42:47 GMT
Permissions-Policy: geolocation=(), microphone=(), camera=()
Referrer-Policy: strict-origin-when-cross-origin
Server: Vercel
Strict-Transport-Security: max-age=63072000
Vary: RSC, Next-Router-State-Tree, Next-Router-Prefetch
X-Content-Type-Options: nosniff
X-Frame-Options: DENY
X-Matched-Path: /api/siswa
X-Ratelimit-Limit: 100
X-Ratelimit-Remaining: 98
X-Ratelimit-Reset: 2026-07-11T17:43:44.242Z
X-Vercel-Cache: MISS
X-Vercel-Id: sin1::iad1::vkhnw-1783791764221-bec44e2cd7ad
X-Xss-Protection: 1; mode=block
Transfer-Encoding: chunked

{
    "success": true,
    "message": "Siswa berhasil ditambahkan",
    "data": {
        "id": "de930f25-8cff-4c6f-bd4c-8b8a7d418a84",
        "nama": "Tamaki Ridho",
        "nis": "998875",
        "kelas": "X-RPL-1",
        "jurusan": "RPL",
        "email": "ridhotest1783791755000@gmail.com",
        "telepon": "083791755001",
        "alamat": "Kalimantan",
        "created_by": "unknown",
        "created_at": "2026-07-11T17:42:46.874553+00:00",
        "updated_at": "2026-07-11T17:42:46.874553+00:00"
    }
}
Nama student Tamaki Ridho berhasil di-create! ID: de930f25-8cff-4c6f-bd4c-8b8a7d418a84
HTTP/1.1 200 OK
Cache-Control: public, max-age=0, must-revalidate
Content-Encoding: gzip
Content-Type: application/json
Date: Sat, 11 Jul 2026 17:42:48 GMT
Permissions-Policy: geolocation=(), microphone=(), camera=()
Referrer-Policy: strict-origin-when-cross-origin
Server: Vercel
Strict-Transport-Security: max-age=63072000
Vary: RSC, Next-Router-State-Tree, Next-Router-Prefetch
X-Content-Type-Options: nosniff
X-Frame-Options: DENY
X-Matched-Path: /api/siswa
X-Ratelimit-Limit: 100
X-Ratelimit-Remaining: 98
X-Ratelimit-Reset: 2026-07-11T17:43:47.431Z
X-Vercel-Cache: BYPASS
X-Vercel-Id: sin1::iad1::rnj5b-1783791767386-eae5004d92d7
X-Xss-Protection: 1; mode=block
Transfer-Encoding: chunked

{
    "success": true,
    "data": {
        "data": [
            {
                "id": "de930f25-8cff-4c6f-bd4c-8b8a7d418a84",
                "nama": "Tamaki Ridho",
                "nis": "998875",
                "kelas": "X-RPL-1",
                "jurusan": "RPL",
                "email": "ridhotest1783791755000@gmail.com",
                "telepon": "083791755001",
                "alamat": "Kalimantan",
                "created_by": "unknown",
                "created_at": "2026-07-11T17:42:46.874553+00:00",
                "updated_at": "2026-07-11T17:42:46.874553+00:00"
            },
            {
                "id": "58d47639-4234-4a1a-a881-bf7386840784",
                "nama": "Iroha Ridho",
                "nis": "998873",
                "kelas": "XI-TKJ-2",
                "jurusan": "RPL",
                "email": "ridhotest1783779139961@gmail.com",
                "telepon": "083779139962",
                "alamat": "Banjarmasin, Kalimantan Selatan",
                "created_by": "unknown",
                "created_at": "2026-07-11T14:12:31.014059+00:00",
                "updated_at": "2026-07-11T14:12:38.946933+00:00"
            },
            {
                "id": "6629a50a-6bd9-443e-82e8-969fd6f505a7",
                "nama": "Tamaki Ridho",
                "nis": "998877",
                "kelas": "X-RPL-1",
                "jurusan": "RPL",
                "email": "ridhotest1783777948646@gmail.com",
                "telepon": "083777948646",
                "alamat": "Kalimantan",
                "created_by": "unknown",
                "created_at": "2026-07-11T13:52:39.010338+00:00",
                "updated_at": "2026-07-11T13:52:39.010338+00:00"
            },
            {
                "id": "27ea2773-ee2c-496d-b925-e0697e44e7a2",
                "nama": "annisa ferdeani",
                "nis": "112233",
                "kelas": "X-IPA-2",
                "jurusan": "IPA",
                "email": "annisa123@amail.com",
                "telepon": "0812345678",
                "alamat": "indonesia konoha",
                "created_by": "unknown",
                "created_at": "2026-07-04T04:53:16.123259+00:00",
                "updated_at": "2026-07-04T04:53:16.123259+00:00"
            },
            {
                "id": "82c6b040-57ea-4517-9d15-85529a7485a1",
                "nama": "Ilham",
                "nis": "123456789",
                "kelas": "X-IPA-2",
                "jurusan": "IPA",
                "email": "ilham@gmail.com",
                "telepon": "0812345689",
                "alamat": "bandung",
                "created_by": "unknown",
                "created_at": "2026-06-23T04:52:04.571289+00:00",
                "updated_at": "2026-06-23T04:52:04.571289+00:00"
            },
            {
                "id": "8bef695b-f95a-469e-9039-b394b8e350a2",
                "nama": "Azhar",
                "nis": "673774",
                "kelas": "X-IPA-1",
                "jurusan": "RPL",
                "email": null,
                "telepon": null,
                "alamat": null,
                "created_by": "unknown",
                "created_at": "2026-06-17T15:04:35.75155+00:00",
                "updated_at": "2026-06-17T15:04:35.75155+00:00"
            },
            {
                "id": "c3100ff7-c5d4-44f0-bef1-81f615f87b5d",
                "nama": "Janedoe",
                "nis": "66666",
                "kelas": "X-IPA-1",
                "jurusan": "IPA",
                "email": null,
                "telepon": null,
                "alamat": null,
                "created_by": "unknown",
                "created_at": "2026-06-17T14:47:37.156006+00:00",
                "updated_at": "2026-06-17T15:11:41.436318+00:00"
            },
            {
                "id": "0c75bff8-1336-4bad-8a61-5f29feeb9d89",
                "nama": "Azhar",
                "nis": "148899",
                "kelas": "X-IPA-1",
                "jurusan": "RPL",
                "email": null,
                "telepon": null,
                "alamat": null,
                "created_by": "unknown",
                "created_at": "2026-06-17T14:05:50.357362+00:00",
                "updated_at": "2026-06-17T14:05:50.357362+00:00"
            },
            {
                "id": "f0cec283-e6a7-45f8-b3f5-14f305a2cb55",
                "nama": "Azhar",
                "nis": "91750",
                "kelas": "X-IPA-1",
                "jurusan": "RPL",
                "email": null,
                "telepon": null,
                "alamat": null,
                "created_by": "unknown",
                "created_at": "2026-06-17T14:04:53.244324+00:00",
                "updated_at": "2026-06-17T14:04:53.244324+00:00"
            },
            {
                "id": "4a7aa1dc-6abf-443c-afe9-ccd97db5454b",
                "nama": "Azhar",
                "nis": "858315",
                "kelas": "X-IPA-1",
                "jurusan": "RPL",
                "email": null,
                "telepon": null,
                "alamat": null,
                "created_by": "unknown",
                "created_at": "2026-06-17T14:01:00.337144+00:00",
                "updated_at": "2026-06-17T14:01:00.337144+00:00"
            }
        ],
        "pagination": {
            "page": 1,
            "limit": 10,
            "total": 11564,
            "totalPages": 1157
        }
    }
}
HTTP/1.1 401 Unauthorized
Cache-Control: public, max-age=0, must-revalidate
Content-Type: application/json
Date: Sat, 11 Jul 2026 17:42:48 GMT
Permissions-Policy: geolocation=(), microphone=(), camera=()
Referrer-Policy: strict-origin-when-cross-origin
Server: Vercel
Strict-Transport-Security: max-age=63072000
Vary: RSC, Next-Router-State-Tree, Next-Router-Prefetch
X-Content-Type-Options: nosniff
X-Frame-Options: DENY
X-Matched-Path: /api/auth/login
X-Ratelimit-Limit: 100
X-Ratelimit-Remaining: 98
X-Ratelimit-Reset: 2026-07-11T17:43:47.544Z
X-Vercel-Cache: MISS
X-Vercel-Id: sin1::iad1::kb5zz-1783791767523-3f176e24dbeb
X-Xss-Protection: 1; mode=block
Transfer-Encoding: chunked

{
    "success": false,
    "error": "Email atau password salah"
}
Status Code: 401
Response: {"success":false,"error":"Email atau password salah"}
HTTP/1.1 400 Bad Request
Cache-Control: public, max-age=0, must-revalidate
Content-Type: application/json
Date: Sat, 11 Jul 2026 17:42:49 GMT
Permissions-Policy: geolocation=(), microphone=(), camera=()
Referrer-Policy: strict-origin-when-cross-origin
Server: Vercel
Strict-Transport-Security: max-age=63072000
Vary: RSC, Next-Router-State-Tree, Next-Router-Prefetch
X-Content-Type-Options: nosniff
X-Frame-Options: DENY
X-Matched-Path: /api/auth/login
X-Ratelimit-Limit: 100
X-Ratelimit-Remaining: 98
X-Ratelimit-Reset: 2026-07-11T17:43:48.862Z
X-Vercel-Cache: MISS
X-Vercel-Id: sin1::iad1::b7tbt-1783791768821-86d2cccbce23
X-Xss-Protection: 1; mode=block
Transfer-Encoding: chunked

{
    "success": false,
    "error": "Validasi gagal: Email tidak valid, Password tidak boleh kosong"
}
Status Code: 400
Response: {"success":false,"error":"Validasi gagal: Email tidak valid, Password tidak boleh kosong"}
]]></system-out>
  <system-err><![CDATA[]]></system-err>
</testsuite>
